%!PS-Adobe-3.0 EPSF-3.0
%%Title: fairml_ldp.eps
%%Creator: matplotlib version 3.1.1, http://matplotlib.org/
%%CreationDate: Tue Nov 12 16:24:08 2019
%%Orientation: portrait
%%BoundingBox: -878.1921875000002 -715.2046875 1490.1921875000003 1507.2046874999996
%%EndComments
%%BeginProlog
/mpldict 8 dict def
mpldict begin
/m { moveto } bind def
/l { lineto } bind def
/r { rlineto } bind def
/c { curveto } bind def
/cl { closepath } bind def
/box {
m
1 index 0 r
0 exch r
neg 0 r
cl
} bind def
/clipbox {
box
clip
newpath
} bind def
%!PS-Adobe-3.0 Resource-Font
%%Title: DejaVu Sans
%%Copyright: Copyright (c) 2003 by Bitstream, Inc. All Rights Reserved. Copyright (c) 2006 by Tavmjong Bah. All Rights Reserved. DejaVu changes are in public domain 
%%Creator: Converted from TrueType to type 3 by PPR
25 dict begin
/_d{bind def}bind def
/_m{moveto}_d
/_l{lineto}_d
/_cl{closepath eofill}_d
/_c{curveto}_d
/_sc{7 -1 roll{setcachedevice}{pop pop pop pop pop pop}ifelse}_d
/_e{exec}_d
/FontName /DejaVuSans def
/PaintType 0 def
/FontMatrix[.001 0 0 .001 0 0]def
/FontBBox[-1021 -463 1793 1232]def
/FontType 3 def
/Encoding [ /space /hyphen /zero /one /two /five /seven /question /A /C /D /E /F /H /L /M /N /O /P /S /T /W /a /b /c /d /e /f /g /h /i /k /l /m /n /o /p /r /s /t /u /v /w /x /y /minus ] def
/FontInfo 10 dict dup begin
/FamilyName (DejaVu Sans) def
/FullName (DejaVu Sans) def
/Notice (Copyright (c) 2003 by Bitstream, Inc. All Rights Reserved. Copyright (c) 2006 by Tavmjong Bah. All Rights Reserved. DejaVu changes are in public domain ) def
/Weight (Book) def
/Version (Version 2.35) def
/ItalicAngle 0.0 def
/isFixedPitch false def
/UnderlinePosition -130 def
/UnderlineThickness 90 def
end readonly def
/CharStrings 47 dict dup begin
/.notdef 0 def
/space{318 0 0 0 0 0 _sc
}_d
/hyphen{361 0 49 234 312 314 _sc
49 314 _m
312 314 _l
312 234 _l
49 234 _l
49 314 _l
_cl}_d
/zero{636 0 66 -13 570 742 _sc
318 664 _m
267 664 229 639 203 589 _c
177 539 165 464 165 364 _c
165 264 177 189 203 139 _c
229 89 267 64 318 64 _c
369 64 407 89 433 139 _c
458 189 471 264 471 364 _c
471 464 458 539 433 589 _c
407 639 369 664 318 664 _c
318 742 _m
399 742 461 709 505 645 _c
548 580 570 486 570 364 _c
570 241 548 147 505 83 _c
461 19 399 -13 318 -13 _c
236 -13 173 19 130 83 _c
87 147 66 241 66 364 _c
66 486 87 580 130 645 _c
173 709 236 742 318 742 _c
_cl}_d
/one{636 0 110 0 544 729 _sc
124 83 _m
285 83 _l
285 639 _l
110 604 _l
110 694 _l
284 729 _l
383 729 _l
383 83 _l
544 83 _l
544 0 _l
124 0 _l
124 83 _l
_cl}_d
/two{{636 0 73 0 536 742 _sc
192 83 _m
536 83 _l
536 0 _l
73 0 _l
73 83 _l
110 121 161 173 226 239 _c
290 304 331 346 348 365 _c
380 400 402 430 414 455 _c
426 479 433 504 433 528 _c
433 566 419 598 392 622 _c
365 646 330 659 286 659 _c
255 659 222 653 188 643 _c
154 632 117 616 78 594 _c
78 694 _l
118 710 155 722 189 730 _c
223 738 255 742 284 742 _c
}_e{359 742 419 723 464 685 _c
509 647 532 597 532 534 _c
532 504 526 475 515 449 _c
504 422 484 390 454 354 _c
446 344 420 317 376 272 _c
332 227 271 164 192 83 _c
_cl}_e}_d
/five{{636 0 77 -13 549 729 _sc
108 729 _m
495 729 _l
495 646 _l
198 646 _l
198 467 _l
212 472 227 476 241 478 _c
255 480 270 482 284 482 _c
365 482 429 459 477 415 _c
525 370 549 310 549 234 _c
549 155 524 94 475 51 _c
426 8 357 -13 269 -13 _c
238 -13 207 -10 175 -6 _c
143 -1 111 6 77 17 _c
77 116 _l
106 100 136 88 168 80 _c
199 72 232 69 267 69 _c
}_e{323 69 368 83 401 113 _c
433 143 450 183 450 234 _c
450 284 433 324 401 354 _c
368 384 323 399 267 399 _c
241 399 214 396 188 390 _c
162 384 135 375 108 363 _c
108 729 _l
_cl}_e}_d
/seven{636 0 82 0 551 729 _sc
82 729 _m
551 729 _l
551 687 _l
286 0 _l
183 0 _l
432 646 _l
82 646 _l
82 729 _l
_cl}_d
/question{{531 0 72 0 461 742 _sc
191 124 _m
290 124 _l
290 0 _l
191 0 _l
191 124 _l
287 196 _m
194 196 _l
194 271 _l
194 303 198 330 207 352 _c
216 373 235 398 265 426 _c
309 469 _l
327 486 341 502 349 518 _c
357 533 362 549 362 565 _c
362 593 351 617 330 635 _c
308 653 280 662 245 662 _c
219 662 192 656 163 645 _c
133 633 103 617 72 595 _c
72 687 _l
}_e{102 705 133 719 165 728 _c
196 737 228 742 262 742 _c
322 742 370 726 406 694 _c
442 662 461 621 461 570 _c
461 545 455 521 443 499 _c
431 477 411 452 382 424 _c
339 382 _l
323 366 312 354 306 346 _c
300 337 295 329 293 321 _c
291 314 289 306 288 296 _c
287 286 287 272 287 256 _c
287 196 _l
_cl}_e}_d
/A{684 0 8 0 676 729 _sc
342 632 _m
208 269 _l
476 269 _l
342 632 _l
286 729 _m
398 729 _l
676 0 _l
573 0 _l
507 187 _l
178 187 _l
112 0 _l
8 0 _l
286 729 _l
_cl}_d
/C{{698 0 56 -13 644 742 _sc
644 673 _m
644 569 _l
610 599 575 622 537 638 _c
499 653 460 661 418 661 _c
334 661 270 635 226 584 _c
182 533 160 460 160 364 _c
160 268 182 194 226 143 _c
270 92 334 67 418 67 _c
460 67 499 74 537 90 _c
575 105 610 128 644 159 _c
644 56 _l
609 32 572 15 534 4 _c
496 -7 455 -13 412 -13 _c
302 -13 215 20 151 87 _c
}_e{87 154 56 246 56 364 _c
56 481 87 573 151 641 _c
215 708 302 742 412 742 _c
456 742 497 736 535 725 _c
573 713 610 696 644 673 _c
_cl}_e}_d
/D{770 0 98 0 711 729 _sc
197 648 _m
197 81 _l
316 81 _l
416 81 490 103 537 149 _c
583 195 607 267 607 365 _c
607 463 583 534 537 580 _c
490 625 416 648 316 648 _c
197 648 _l
98 729 _m
301 729 _l
442 729 546 699 612 641 _c
678 582 711 490 711 365 _c
711 239 677 147 611 88 _c
545 29 441 0 301 0 _c
98 0 _l
98 729 _l
_cl}_d
/E{632 0 98 0 568 729 _sc
98 729 _m
559 729 _l
559 646 _l
197 646 _l
197 430 _l
544 430 _l
544 347 _l
197 347 _l
197 83 _l
568 83 _l
568 0 _l
98 0 _l
98 729 _l
_cl}_d
/F{575 0 98 0 517 729 _sc
98 729 _m
517 729 _l
517 646 _l
197 646 _l
197 431 _l
486 431 _l
486 348 _l
197 348 _l
197 0 _l
98 0 _l
98 729 _l
_cl}_d
/H{752 0 98 0 654 729 _sc
98 729 _m
197 729 _l
197 430 _l
555 430 _l
555 729 _l
654 729 _l
654 0 _l
555 0 _l
555 347 _l
197 347 _l
197 0 _l
98 0 _l
98 729 _l
_cl}_d
/L{557 0 98 0 552 729 _sc
98 729 _m
197 729 _l
197 83 _l
552 83 _l
552 0 _l
98 0 _l
98 729 _l
_cl}_d
/M{863 0 98 0 765 729 _sc
98 729 _m
245 729 _l
431 233 _l
618 729 _l
765 729 _l
765 0 _l
669 0 _l
669 640 _l
481 140 _l
382 140 _l
194 640 _l
194 0 _l
98 0 _l
98 729 _l
_cl}_d
/N{748 0 98 0 650 729 _sc
98 729 _m
231 729 _l
554 119 _l
554 729 _l
650 729 _l
650 0 _l
517 0 _l
194 610 _l
194 0 _l
98 0 _l
98 729 _l
_cl}_d
/O{787 0 56 -13 731 742 _sc
394 662 _m
322 662 265 635 223 582 _c
181 528 160 456 160 364 _c
160 272 181 199 223 146 _c
265 92 322 66 394 66 _c
465 66 522 92 564 146 _c
606 199 627 272 627 364 _c
627 456 606 528 564 582 _c
522 635 465 662 394 662 _c
394 742 _m
496 742 577 707 639 639 _c
700 571 731 479 731 364 _c
731 248 700 157 639 89 _c
577 21 496 -13 394 -13 _c
291 -13 209 21 148 89 _c
86 157 56 248 56 364 _c
56 479 86 571 148 639 _c
209 707 291 742 394 742 _c
_cl}_d
/P{603 0 98 0 569 729 _sc
197 648 _m
197 374 _l
321 374 _l
367 374 402 385 427 409 _c
452 433 465 467 465 511 _c
465 555 452 588 427 612 _c
402 636 367 648 321 648 _c
197 648 _l
98 729 _m
321 729 _l
402 729 464 710 506 673 _c
548 636 569 582 569 511 _c
569 439 548 384 506 348 _c
464 311 402 293 321 293 _c
197 293 _l
197 0 _l
98 0 _l
98 729 _l
_cl}_d
/S{{635 0 66 -13 579 742 _sc
535 705 _m
535 609 _l
497 627 462 640 429 649 _c
395 657 363 662 333 662 _c
279 662 237 651 208 631 _c
179 610 165 580 165 542 _c
165 510 174 485 194 469 _c
213 452 250 439 304 429 _c
364 417 _l
437 403 491 378 526 343 _c
561 307 579 260 579 201 _c
579 130 555 77 508 41 _c
460 5 391 -13 300 -13 _c
265 -13 228 -9 189 -2 _c
}_e{150 5 110 16 69 32 _c
69 134 _l
109 111 148 94 186 83 _c
224 71 262 66 300 66 _c
356 66 399 77 430 99 _c
460 121 476 152 476 194 _c
476 230 465 258 443 278 _c
421 298 385 313 335 323 _c
275 335 _l
201 349 148 372 115 404 _c
82 435 66 478 66 534 _c
66 598 88 649 134 686 _c
179 723 242 742 322 742 _c
356 742 390 739 426 733 _c
461 727 497 717 535 705 _c
}_e{_cl}_e}_d
/T{611 0 -2 0 614 729 _sc
-2 729 _m
614 729 _l
614 646 _l
355 646 _l
355 0 _l
256 0 _l
256 646 _l
-2 646 _l
-2 729 _l
_cl}_d
/W{989 0 33 0 956 729 _sc
33 729 _m
133 729 _l
286 113 _l
439 729 _l
550 729 _l
703 113 _l
856 729 _l
956 729 _l
773 0 _l
649 0 _l
495 633 _l
340 0 _l
216 0 _l
33 729 _l
_cl}_d
/a{{613 0 60 -13 522 560 _sc
343 275 _m
270 275 220 266 192 250 _c
164 233 150 205 150 165 _c
150 133 160 107 181 89 _c
202 70 231 61 267 61 _c
317 61 357 78 387 114 _c
417 149 432 196 432 255 _c
432 275 _l
343 275 _l
522 312 _m
522 0 _l
432 0 _l
432 83 _l
411 49 385 25 355 10 _c
325 -5 287 -13 243 -13 _c
187 -13 142 2 109 33 _c
76 64 60 106 60 159 _c
}_e{60 220 80 266 122 298 _c
163 329 224 345 306 345 _c
432 345 _l
432 354 _l
432 395 418 427 391 450 _c
364 472 326 484 277 484 _c
245 484 215 480 185 472 _c
155 464 127 453 100 439 _c
100 522 _l
132 534 164 544 195 550 _c
226 556 256 560 286 560 _c
365 560 424 539 463 498 _c
502 457 522 395 522 312 _c
_cl}_e}_d
/b{{635 0 91 -13 580 760 _sc
487 273 _m
487 339 473 390 446 428 _c
418 466 381 485 334 485 _c
286 485 249 466 222 428 _c
194 390 181 339 181 273 _c
181 207 194 155 222 117 _c
249 79 286 61 334 61 _c
381 61 418 79 446 117 _c
473 155 487 207 487 273 _c
181 464 _m
199 496 223 520 252 536 _c
281 552 316 560 356 560 _c
422 560 476 533 518 481 _c
559 428 580 359 580 273 _c
}_e{580 187 559 117 518 65 _c
476 13 422 -13 356 -13 _c
316 -13 281 -5 252 10 _c
223 25 199 49 181 82 _c
181 0 _l
91 0 _l
91 760 _l
181 760 _l
181 464 _l
_cl}_e}_d
/c{{550 0 55 -13 488 560 _sc
488 526 _m
488 442 _l
462 456 437 466 411 473 _c
385 480 360 484 334 484 _c
276 484 230 465 198 428 _c
166 391 150 339 150 273 _c
150 206 166 154 198 117 _c
230 80 276 62 334 62 _c
360 62 385 65 411 72 _c
437 79 462 90 488 104 _c
488 21 _l
462 9 436 0 410 -5 _c
383 -10 354 -13 324 -13 _c
242 -13 176 12 128 64 _c
}_e{79 115 55 185 55 273 _c
55 362 79 432 128 483 _c
177 534 244 560 330 560 _c
358 560 385 557 411 551 _c
437 545 463 537 488 526 _c
_cl}_e}_d
/d{{635 0 55 -13 544 760 _sc
454 464 _m
454 760 _l
544 760 _l
544 0 _l
454 0 _l
454 82 _l
435 49 411 25 382 10 _c
353 -5 319 -13 279 -13 _c
213 -13 159 13 117 65 _c
75 117 55 187 55 273 _c
55 359 75 428 117 481 _c
159 533 213 560 279 560 _c
319 560 353 552 382 536 _c
411 520 435 496 454 464 _c
148 273 _m
148 207 161 155 188 117 _c
215 79 253 61 301 61 _c
}_e{348 61 385 79 413 117 _c
440 155 454 207 454 273 _c
454 339 440 390 413 428 _c
385 466 348 485 301 485 _c
253 485 215 466 188 428 _c
161 390 148 339 148 273 _c
_cl}_e}_d
/e{{615 0 55 -13 562 560 _sc
562 296 _m
562 252 _l
149 252 _l
153 190 171 142 205 110 _c
238 78 284 62 344 62 _c
378 62 412 66 444 74 _c
476 82 509 95 541 113 _c
541 28 _l
509 14 476 3 442 -3 _c
408 -9 373 -13 339 -13 _c
251 -13 182 12 131 62 _c
80 112 55 181 55 268 _c
55 357 79 428 127 481 _c
175 533 241 560 323 560 _c
397 560 455 536 498 489 _c
}_e{540 441 562 377 562 296 _c
472 322 _m
471 371 457 410 431 440 _c
404 469 368 484 324 484 _c
274 484 234 469 204 441 _c
174 413 156 373 152 322 _c
472 322 _l
_cl}_e}_d
/f{352 0 23 0 371 760 _sc
371 760 _m
371 685 _l
285 685 _l
253 685 230 678 218 665 _c
205 652 199 629 199 595 _c
199 547 _l
347 547 _l
347 477 _l
199 477 _l
199 0 _l
109 0 _l
109 477 _l
23 477 _l
23 547 _l
109 547 _l
109 585 _l
109 645 123 690 151 718 _c
179 746 224 760 286 760 _c
371 760 _l
_cl}_d
/g{{635 0 55 -207 544 560 _sc
454 280 _m
454 344 440 395 414 431 _c
387 467 349 485 301 485 _c
253 485 215 467 188 431 _c
161 395 148 344 148 280 _c
148 215 161 165 188 129 _c
215 93 253 75 301 75 _c
349 75 387 93 414 129 _c
440 165 454 215 454 280 _c
544 68 _m
544 -24 523 -93 482 -139 _c
440 -184 377 -207 292 -207 _c
260 -207 231 -204 203 -200 _c
175 -195 147 -188 121 -178 _c
}_e{121 -91 _l
147 -105 173 -115 199 -122 _c
225 -129 251 -133 278 -133 _c
336 -133 380 -117 410 -87 _c
439 -56 454 -10 454 52 _c
454 96 _l
435 64 411 40 382 24 _c
353 8 319 0 279 0 _c
211 0 157 25 116 76 _c
75 127 55 195 55 280 _c
55 364 75 432 116 483 _c
157 534 211 560 279 560 _c
319 560 353 552 382 536 _c
411 520 435 496 454 464 _c
454 547 _l
544 547 _l
}_e{544 68 _l
_cl}_e}_d
/h{634 0 91 0 549 760 _sc
549 330 _m
549 0 _l
459 0 _l
459 327 _l
459 379 448 417 428 443 _c
408 469 378 482 338 482 _c
289 482 251 466 223 435 _c
195 404 181 362 181 309 _c
181 0 _l
91 0 _l
91 760 _l
181 760 _l
181 462 _l
202 494 227 519 257 535 _c
286 551 320 560 358 560 _c
420 560 468 540 500 501 _c
532 462 549 405 549 330 _c
_cl}_d
/i{278 0 94 0 184 760 _sc
94 547 _m
184 547 _l
184 0 _l
94 0 _l
94 547 _l
94 760 _m
184 760 _l
184 646 _l
94 646 _l
94 760 _l
_cl}_d
/k{579 0 91 0 576 760 _sc
91 760 _m
181 760 _l
181 311 _l
449 547 _l
564 547 _l
274 291 _l
576 0 _l
459 0 _l
181 267 _l
181 0 _l
91 0 _l
91 760 _l
_cl}_d
/l{278 0 94 0 184 760 _sc
94 760 _m
184 760 _l
184 0 _l
94 0 _l
94 760 _l
_cl}_d
/m{{974 0 91 0 889 560 _sc
520 442 _m
542 482 569 511 600 531 _c
631 550 668 560 711 560 _c
767 560 811 540 842 500 _c
873 460 889 403 889 330 _c
889 0 _l
799 0 _l
799 327 _l
799 379 789 418 771 444 _c
752 469 724 482 686 482 _c
639 482 602 466 575 435 _c
548 404 535 362 535 309 _c
535 0 _l
445 0 _l
445 327 _l
445 379 435 418 417 444 _c
398 469 369 482 331 482 _c
}_e{285 482 248 466 221 435 _c
194 404 181 362 181 309 _c
181 0 _l
91 0 _l
91 547 _l
181 547 _l
181 462 _l
201 495 226 520 255 536 _c
283 552 317 560 357 560 _c
397 560 430 550 458 530 _c
486 510 506 480 520 442 _c
_cl}_e}_d
/n{634 0 91 0 549 560 _sc
549 330 _m
549 0 _l
459 0 _l
459 327 _l
459 379 448 417 428 443 _c
408 469 378 482 338 482 _c
289 482 251 466 223 435 _c
195 404 181 362 181 309 _c
181 0 _l
91 0 _l
91 547 _l
181 547 _l
181 462 _l
202 494 227 519 257 535 _c
286 551 320 560 358 560 _c
420 560 468 540 500 501 _c
532 462 549 405 549 330 _c
_cl}_d
/o{612 0 55 -13 557 560 _sc
306 484 _m
258 484 220 465 192 427 _c
164 389 150 338 150 273 _c
150 207 163 156 191 118 _c
219 80 257 62 306 62 _c
354 62 392 80 420 118 _c
448 156 462 207 462 273 _c
462 337 448 389 420 427 _c
392 465 354 484 306 484 _c
306 560 _m
384 560 445 534 490 484 _c
534 433 557 363 557 273 _c
557 183 534 113 490 63 _c
445 12 384 -13 306 -13 _c
227 -13 165 12 121 63 _c
77 113 55 183 55 273 _c
55 363 77 433 121 484 _c
165 534 227 560 306 560 _c
_cl}_d
/p{{635 0 91 -207 580 560 _sc
181 82 _m
181 -207 _l
91 -207 _l
91 547 _l
181 547 _l
181 464 _l
199 496 223 520 252 536 _c
281 552 316 560 356 560 _c
422 560 476 533 518 481 _c
559 428 580 359 580 273 _c
580 187 559 117 518 65 _c
476 13 422 -13 356 -13 _c
316 -13 281 -5 252 10 _c
223 25 199 49 181 82 _c
487 273 _m
487 339 473 390 446 428 _c
418 466 381 485 334 485 _c
}_e{286 485 249 466 222 428 _c
194 390 181 339 181 273 _c
181 207 194 155 222 117 _c
249 79 286 61 334 61 _c
381 61 418 79 446 117 _c
473 155 487 207 487 273 _c
_cl}_e}_d
/r{411 0 91 0 411 560 _sc
411 463 _m
401 469 390 473 378 476 _c
366 478 353 480 339 480 _c
288 480 249 463 222 430 _c
194 397 181 350 181 288 _c
181 0 _l
91 0 _l
91 547 _l
181 547 _l
181 462 _l
199 495 224 520 254 536 _c
284 552 321 560 365 560 _c
371 560 378 559 386 559 _c
393 558 401 557 411 555 _c
411 463 _l
_cl}_d
/s{{521 0 54 -13 472 560 _sc
443 531 _m
443 446 _l
417 458 391 468 364 475 _c
336 481 308 485 279 485 _c
234 485 200 478 178 464 _c
156 450 145 430 145 403 _c
145 382 153 366 169 354 _c
185 342 217 330 265 320 _c
296 313 _l
360 299 405 279 432 255 _c
458 230 472 195 472 151 _c
472 100 452 60 412 31 _c
372 1 316 -13 246 -13 _c
216 -13 186 -10 154 -5 _c
}_e{122 0 89 8 54 20 _c
54 113 _l
87 95 120 82 152 74 _c
184 65 216 61 248 61 _c
290 61 323 68 346 82 _c
368 96 380 117 380 144 _c
380 168 371 187 355 200 _c
339 213 303 226 247 238 _c
216 245 _l
160 257 119 275 95 299 _c
70 323 58 356 58 399 _c
58 450 76 490 112 518 _c
148 546 200 560 268 560 _c
301 560 332 557 362 552 _c
391 547 418 540 443 531 _c
}_e{_cl}_e}_d
/t{392 0 27 0 368 702 _sc
183 702 _m
183 547 _l
368 547 _l
368 477 _l
183 477 _l
183 180 _l
183 135 189 106 201 94 _c
213 81 238 75 276 75 _c
368 75 _l
368 0 _l
276 0 _l
206 0 158 13 132 39 _c
106 65 93 112 93 180 _c
93 477 _l
27 477 _l
27 547 _l
93 547 _l
93 702 _l
183 702 _l
_cl}_d
/u{634 0 85 -13 543 560 _sc
85 216 _m
85 547 _l
175 547 _l
175 219 _l
175 167 185 129 205 103 _c
225 77 255 64 296 64 _c
344 64 383 79 411 110 _c
439 141 453 183 453 237 _c
453 547 _l
543 547 _l
543 0 _l
453 0 _l
453 84 _l
431 50 405 26 377 10 _c
348 -5 315 -13 277 -13 _c
214 -13 166 6 134 45 _c
101 83 85 140 85 216 _c
311 560 _m
311 560 _l
_cl}_d
/v{592 0 30 0 562 547 _sc
30 547 _m
125 547 _l
296 88 _l
467 547 _l
562 547 _l
357 0 _l
235 0 _l
30 547 _l
_cl}_d
/w{818 0 42 0 776 547 _sc
42 547 _m
132 547 _l
244 120 _l
356 547 _l
462 547 _l
574 120 _l
686 547 _l
776 547 _l
633 0 _l
527 0 _l
409 448 _l
291 0 _l
185 0 _l
42 547 _l
_cl}_d
/x{592 0 29 0 559 547 _sc
549 547 _m
351 281 _l
559 0 _l
453 0 _l
294 215 _l
135 0 _l
29 0 _l
241 286 _l
47 547 _l
153 547 _l
298 352 _l
443 547 _l
549 547 _l
_cl}_d
/y{592 0 30 -207 562 547 _sc
322 -50 _m
296 -114 271 -157 247 -177 _c
223 -197 191 -207 151 -207 _c
79 -207 _l
79 -132 _l
132 -132 _l
156 -132 175 -126 189 -114 _c
203 -102 218 -75 235 -31 _c
251 9 _l
30 547 _l
125 547 _l
296 119 _l
467 547 _l
562 547 _l
322 -50 _l
_cl}_d
/minus{838 0 106 272 732 355 _sc
106 355 _m
732 355 _l
732 272 _l
106 272 _l
106 355 _l
_cl}_d
end readonly def

/BuildGlyph
 {exch begin
 CharStrings exch
 2 copy known not{pop /.notdef}if
 true 3 1 roll get exec
 end}_d

/BuildChar {
 1 index /Encoding get exch get
 1 index /BuildGlyph get exec
}_d

FontName currentdict end definefont pop
end
%%EndProlog
mpldict begin
-878.192 -715.205 translate
2368.384 2222.409 0 0 clipbox
gsave
0 0 m
2368.384375 0 l
2368.384375 2222.409375 l
0 2222.409375 l
cl
1.000 setgray
fill
grestore
gsave
129.184375 23.871875 m
2361.184375 23.871875 l
2361.184375 2198.271875 l
129.184375 2198.271875 l
cl
0.898 setgray
fill
grestore
0.800 setlinewidth
1 setlinejoin
2 setlinecap
[] 0 setdash
1.000 setgray
gsave
2232 2174 129.2 23.87 clipbox
182.327232 23.871875 m
182.327232 2198.271875 l
stroke
grestore
0 setlinecap
0.333 setgray
gsave
/o {
gsave
newpath
translate
0.8 setlinewidth
1 setlinejoin
0 setlinecap
0 0 m
0 -3.5 l

gsave
0.333 setgray
fill
grestore
stroke
grestore
} bind def
182.327 23.8719 o
grestore
/DejaVuSans findfont
10.000 scalefont
setfont
gsave
168.600670 9.278125 translate
0.000000 rotate
0.000000 0.000000 m /minus glyphshow
8.378906 0.000000 m /one glyphshow
14.741211 0.000000 m /zero glyphshow
21.103516 0.000000 m /zero glyphshow
grestore
2 setlinecap
1.000 setgray
gsave
2232 2174 129.2 23.87 clipbox
448.041518 23.871875 m
448.041518 2198.271875 l
stroke
grestore
0 setlinecap
0.333 setgray
gsave
/o {
gsave
newpath
translate
0.8 setlinewidth
1 setlinejoin
0 setlinecap
0 0 m
0 -3.5 l

gsave
0.333 setgray
fill
grestore
stroke
grestore
} bind def
448.042 23.8719 o
grestore
gsave
437.494643 9.278125 translate
0.000000 rotate
0.000000 0.000000 m /minus glyphshow
8.378906 0.000000 m /seven glyphshow
14.741211 0.000000 m /five glyphshow
grestore
2 setlinecap
1.000 setgray
gsave
2232 2174 129.2 23.87 clipbox
713.755804 23.871875 m
713.755804 2198.271875 l
stroke
grestore
0 setlinecap
0.333 setgray
gsave
/o {
gsave
newpath
translate
0.8 setlinewidth
1 setlinejoin
0 setlinecap
0 0 m
0 -3.5 l

gsave
0.333 setgray
fill
grestore
stroke
grestore
} bind def
713.756 23.8719 o
grestore
gsave
703.208929 9.278125 translate
0.000000 rotate
0.000000 0.000000 m /minus glyphshow
8.378906 0.000000 m /five glyphshow
14.741211 0.000000 m /zero glyphshow
grestore
2 setlinecap
1.000 setgray
gsave
2232 2174 129.2 23.87 clipbox
979.470089 23.871875 m
979.470089 2198.271875 l
stroke
grestore
0 setlinecap
0.333 setgray
gsave
/o {
gsave
newpath
translate
0.8 setlinewidth
1 setlinejoin
0 setlinecap
0 0 m
0 -3.5 l

gsave
0.333 setgray
fill
grestore
stroke
grestore
} bind def
979.47 23.8719 o
grestore
gsave
968.923214 9.278125 translate
0.000000 rotate
0.000000 0.000000 m /minus glyphshow
8.378906 0.000000 m /two glyphshow
14.741211 0.000000 m /five glyphshow
grestore
2 setlinecap
1.000 setgray
gsave
2232 2174 129.2 23.87 clipbox
1245.184375 23.871875 m
1245.184375 2198.271875 l
stroke
grestore
0 setlinecap
0.333 setgray
gsave
/o {
gsave
newpath
translate
0.8 setlinewidth
1 setlinejoin
0 setlinecap
0 0 m
0 -3.5 l

gsave
0.333 setgray
fill
grestore
stroke
grestore
} bind def
1245.18 23.8719 o
grestore
gsave
1242.004688 9.278125 translate
0.000000 rotate
0.000000 0.000000 m /zero glyphshow
grestore
2 setlinecap
1.000 setgray
gsave
2232 2174 129.2 23.87 clipbox
1510.898661 23.871875 m
1510.898661 2198.271875 l
stroke
grestore
0 setlinecap
0.333 setgray
gsave
/o {
gsave
newpath
translate
0.8 setlinewidth
1 setlinejoin
0 setlinecap
0 0 m
0 -3.5 l

gsave
0.333 setgray
fill
grestore
stroke
grestore
} bind def
1510.9 23.8719 o
grestore
gsave
1504.539286 9.278125 translate
0.000000 rotate
0.000000 0.000000 m /two glyphshow
6.362305 0.000000 m /five glyphshow
grestore
2 setlinecap
1.000 setgray
gsave
2232 2174 129.2 23.87 clipbox
1776.612946 23.871875 m
1776.612946 2198.271875 l
stroke
grestore
0 setlinecap
0.333 setgray
gsave
/o {
gsave
newpath
translate
0.8 setlinewidth
1 setlinejoin
0 setlinecap
0 0 m
0 -3.5 l

gsave
0.333 setgray
fill
grestore
stroke
grestore
} bind def
1776.61 23.8719 o
grestore
gsave
1770.253571 9.278125 translate
0.000000 rotate
0.000000 0.000000 m /five glyphshow
6.362305 0.000000 m /zero glyphshow
grestore
2 setlinecap
1.000 setgray
gsave
2232 2174 129.2 23.87 clipbox
2042.327232 23.871875 m
2042.327232 2198.271875 l
stroke
grestore
0 setlinecap
0.333 setgray
gsave
/o {
gsave
newpath
translate
0.8 setlinewidth
1 setlinejoin
0 setlinecap
0 0 m
0 -3.5 l

gsave
0.333 setgray
fill
grestore
stroke
grestore
} bind def
2042.33 23.8719 o
grestore
gsave
2035.967857 9.278125 translate
0.000000 rotate
0.000000 0.000000 m /seven glyphshow
6.362305 0.000000 m /five glyphshow
grestore
2 setlinecap
1.000 setgray
gsave
2232 2174 129.2 23.87 clipbox
2308.041518 23.871875 m
2308.041518 2198.271875 l
stroke
grestore
0 setlinecap
0.333 setgray
gsave
/o {
gsave
newpath
translate
0.8 setlinewidth
1 setlinejoin
0 setlinecap
0 0 m
0 -3.5 l

gsave
0.333 setgray
fill
grestore
stroke
grestore
} bind def
2308.04 23.8719 o
grestore
gsave
2298.502455 9.278125 translate
0.000000 rotate
0.000000 0.000000 m /one glyphshow
6.362305 0.000000 m /zero glyphshow
12.724609 0.000000 m /zero glyphshow
grestore
2 setlinecap
1.000 setgray
gsave
2232 2174 129.2 23.87 clipbox
129.184375 144.194405 m
2361.184375 144.194405 l
stroke
grestore
0 setlinecap
0.333 setgray
gsave
/o {
gsave
newpath
translate
0.8 setlinewidth
1 setlinejoin
0 setlinecap
0 0 m
-3.5 0 l

gsave
0.333 setgray
fill
grestore
stroke
grestore
} bind def
129.184 144.194 o
grestore
gsave
49.371875 140.397530 translate
0.000000 rotate
0.000000 0.000000 m /N glyphshow
7.480469 0.000000 m /e glyphshow
13.632812 0.000000 m /v glyphshow
19.550781 0.000000 m /e glyphshow
25.703125 0.000000 m /r glyphshow
29.814453 0.000000 m /hyphen glyphshow
33.422852 0.000000 m /m glyphshow
43.164062 0.000000 m /a glyphshow
49.291992 0.000000 m /r glyphshow
53.403320 0.000000 m /r glyphshow
57.514648 0.000000 m /i glyphshow
60.292969 0.000000 m /e glyphshow
66.445312 0.000000 m /d glyphshow
grestore
2 setlinecap
1.000 setgray
gsave
2232 2174 129.2 23.87 clipbox
129.184375 197.90982 m
2361.184375 197.90982 l
stroke
grestore
0 setlinecap
0.333 setgray
gsave
/o {
gsave
newpath
translate
0.8 setlinewidth
1 setlinejoin
0 setlinecap
0 0 m
-3.5 0 l

gsave
0.333 setgray
fill
grestore
stroke
grestore
} bind def
129.184 197.91 o
grestore
gsave
54.325000 194.112945 translate
0.000000 rotate
0.000000 0.000000 m /O glyphshow
7.871094 0.000000 m /t glyphshow
11.791992 0.000000 m /h glyphshow
18.129883 0.000000 m /e glyphshow
24.282227 0.000000 m /r glyphshow
28.393555 0.000000 m /hyphen glyphshow
32.001953 0.000000 m /s glyphshow
37.211914 0.000000 m /e glyphshow
43.364258 0.000000 m /r glyphshow
47.475586 0.000000 m /v glyphshow
53.393555 0.000000 m /i glyphshow
56.171875 0.000000 m /c glyphshow
61.669922 0.000000 m /e glyphshow
grestore
2 setlinecap
1.000 setgray
gsave
2232 2174 129.2 23.87 clipbox
129.184375 251.625235 m
2361.184375 251.625235 l
stroke
grestore
0 setlinecap
0.333 setgray
gsave
/o {
gsave
newpath
translate
0.8 setlinewidth
1 setlinejoin
0 setlinecap
0 0 m
-3.5 0 l

gsave
0.333 setgray
fill
grestore
stroke
grestore
} bind def
129.184 251.625 o
grestore
gsave
59.903125 247.828360 translate
0.000000 rotate
0.000000 0.000000 m /A glyphshow
6.840820 0.000000 m /d glyphshow
13.188477 0.000000 m /m glyphshow
22.929688 0.000000 m /hyphen glyphshow
26.538086 0.000000 m /c glyphshow
32.036133 0.000000 m /l glyphshow
34.814453 0.000000 m /e glyphshow
40.966797 0.000000 m /r glyphshow
45.078125 0.000000 m /i glyphshow
47.856445 0.000000 m /c glyphshow
53.354492 0.000000 m /a glyphshow
59.482422 0.000000 m /l glyphshow
grestore
2 setlinecap
1.000 setgray
gsave
2232 2174 129.2 23.87 clipbox
129.184375 305.34065 m
2361.184375 305.34065 l
stroke
grestore
0 setlinecap
0.333 setgray
gsave
/o {
gsave
newpath
translate
0.8 setlinewidth
1 setlinejoin
0 setlinecap
0 0 m
-3.5 0 l

gsave
0.333 setgray
fill
grestore
stroke
grestore
} bind def
129.184 305.341 o
grestore
gsave
31.590625 301.543775 translate
0.000000 rotate
0.000000 0.000000 m /H glyphshow
7.519531 0.000000 m /a glyphshow
13.647461 0.000000 m /n glyphshow
19.985352 0.000000 m /d glyphshow
26.333008 0.000000 m /l glyphshow
29.111328 0.000000 m /e glyphshow
35.263672 0.000000 m /r glyphshow
39.375000 0.000000 m /s glyphshow
44.584961 0.000000 m /hyphen glyphshow
48.193359 0.000000 m /c glyphshow
53.691406 0.000000 m /l glyphshow
56.469727 0.000000 m /e glyphshow
62.622070 0.000000 m /a glyphshow
68.750000 0.000000 m /n glyphshow
75.087891 0.000000 m /e glyphshow
81.240234 0.000000 m /r glyphshow
85.351562 0.000000 m /s glyphshow
grestore
2 setlinecap
1.000 setgray
gsave
2232 2174 129.2 23.87 clipbox
129.184375 359.056065 m
2361.184375 359.056065 l
stroke
grestore
0 setlinecap
0.333 setgray
gsave
/o {
gsave
newpath
translate
0.8 setlinewidth
1 setlinejoin
0 setlinecap
0 0 m
-3.5 0 l

gsave
0.333 setgray
fill
grestore
stroke
grestore
} bind def
129.184 359.056 o
grestore
gsave
77.543750 355.259190 translate
0.000000 rotate
0.000000 0.000000 m /D glyphshow
7.700195 0.000000 m /i glyphshow
10.478516 0.000000 m /v glyphshow
16.396484 0.000000 m /o glyphshow
22.514648 0.000000 m /r glyphshow
26.625977 0.000000 m /c glyphshow
32.124023 0.000000 m /e glyphshow
38.276367 0.000000 m /d glyphshow
grestore
2 setlinecap
1.000 setgray
gsave
2232 2174 129.2 23.87 clipbox
129.184375 412.77148 m
2361.184375 412.77148 l
stroke
grestore
0 setlinecap
0.333 setgray
gsave
/o {
gsave
newpath
translate
0.8 setlinewidth
1 setlinejoin
0 setlinecap
0 0 m
-3.5 0 l

gsave
0.333 setgray
fill
grestore
stroke
grestore
} bind def
129.184 412.771 o
grestore
gsave
116.871875 408.974605 translate
0.000000 rotate
0.000000 0.000000 m /question glyphshow
grestore
2 setlinecap
1.000 setgray
gsave
2232 2174 129.2 23.87 clipbox
129.184375 466.486895 m
2361.184375 466.486895 l
stroke
grestore
0 setlinecap
0.333 setgray
gsave
/o {
gsave
newpath
translate
0.8 setlinewidth
1 setlinejoin
0 setlinecap
0 0 m
-3.5 0 l

gsave
0.333 setgray
fill
grestore
stroke
grestore
} bind def
129.184 466.487 o
grestore
gsave
61.762500 462.690020 translate
0.000000 rotate
0.000000 0.000000 m /question glyphshow
5.307617 0.000000 m /o glyphshow
11.425781 0.000000 m /c glyphshow
16.923828 0.000000 m /c glyphshow
22.421875 0.000000 m /u glyphshow
28.759766 0.000000 m /p glyphshow
35.107422 0.000000 m /a glyphshow
41.235352 0.000000 m /t glyphshow
45.156250 0.000000 m /i glyphshow
47.934570 0.000000 m /o glyphshow
54.052734 0.000000 m /n glyphshow
grestore
2 setlinecap
1.000 setgray
gsave
2232 2174 129.2 23.87 clipbox
129.184375 520.20231 m
2361.184375 520.20231 l
stroke
grestore
0 setlinecap
0.333 setgray
gsave
/o {
gsave
newpath
translate
0.8 setlinewidth
1 setlinejoin
0 setlinecap
0 0 m
-3.5 0 l

gsave
0.333 setgray
fill
grestore
stroke
grestore
} bind def
129.184 520.202 o
grestore
gsave
39.293750 516.405435 translate
0.000000 rotate
0.000000 0.000000 m /S glyphshow
6.347656 0.000000 m /e glyphshow
12.500000 0.000000 m /l glyphshow
15.278320 0.000000 m /f glyphshow
18.798828 0.000000 m /hyphen glyphshow
22.407227 0.000000 m /e glyphshow
28.559570 0.000000 m /m glyphshow
38.300781 0.000000 m /p glyphshow
44.648438 0.000000 m /hyphen glyphshow
48.256836 0.000000 m /n glyphshow
54.594727 0.000000 m /o glyphshow
60.712891 0.000000 m /t glyphshow
64.633789 0.000000 m /hyphen glyphshow
68.242188 0.000000 m /i glyphshow
71.020508 0.000000 m /n glyphshow
77.358398 0.000000 m /c glyphshow
grestore
2 setlinecap
1.000 setgray
gsave
2232 2174 129.2 23.87 clipbox
129.184375 573.917725 m
2361.184375 573.917725 l
stroke
grestore
0 setlinecap
0.333 setgray
gsave
/o {
gsave
newpath
translate
0.8 setlinewidth
1 setlinejoin
0 setlinecap
0 0 m
-3.5 0 l

gsave
0.333 setgray
fill
grestore
stroke
grestore
} bind def
129.184 573.918 o
grestore
gsave
30.512500 570.120850 translate
0.000000 rotate
0.000000 0.000000 m /M glyphshow
8.627930 0.000000 m /a glyphshow
14.755859 0.000000 m /c glyphshow
20.253906 0.000000 m /h glyphshow
26.591797 0.000000 m /i glyphshow
29.370117 0.000000 m /n glyphshow
35.708008 0.000000 m /e glyphshow
41.860352 0.000000 m /hyphen glyphshow
45.468750 0.000000 m /o glyphshow
51.586914 0.000000 m /p glyphshow
57.934570 0.000000 m /hyphen glyphshow
61.542969 0.000000 m /i glyphshow
64.321289 0.000000 m /n glyphshow
70.659180 0.000000 m /s glyphshow
75.869141 0.000000 m /p glyphshow
82.216797 0.000000 m /c glyphshow
87.714844 0.000000 m /t glyphshow
grestore
2 setlinecap
1.000 setgray
gsave
2232 2174 129.2 23.87 clipbox
129.184375 627.63314 m
2361.184375 627.63314 l
stroke
grestore
0 setlinecap
0.333 setgray
gsave
/o {
gsave
newpath
translate
0.8 setlinewidth
1 setlinejoin
0 setlinecap
0 0 m
-3.5 0 l

gsave
0.333 setgray
fill
grestore
stroke
grestore
} bind def
129.184 627.633 o
grestore
gsave
70.559375 623.836265 translate
0.000000 rotate
0.000000 0.000000 m /S glyphshow
6.347656 0.000000 m /e glyphshow
12.500000 0.000000 m /p glyphshow
18.847656 0.000000 m /a glyphshow
24.975586 0.000000 m /r glyphshow
29.086914 0.000000 m /a glyphshow
35.214844 0.000000 m /t glyphshow
39.135742 0.000000 m /e glyphshow
45.288086 0.000000 m /d glyphshow
grestore
2 setlinecap
1.000 setgray
gsave
2232 2174 129.2 23.87 clipbox
129.184375 681.348555 m
2361.184375 681.348555 l
stroke
grestore
0 setlinecap
0.333 setgray
gsave
/o {
gsave
newpath
translate
0.8 setlinewidth
1 setlinejoin
0 setlinecap
0 0 m
-3.5 0 l

gsave
0.333 setgray
fill
grestore
stroke
grestore
} bind def
129.184 681.349 o
grestore
gsave
76.356250 677.551680 translate
0.000000 rotate
0.000000 0.000000 m /W glyphshow
9.887695 0.000000 m /i glyphshow
12.666016 0.000000 m /d glyphshow
19.013672 0.000000 m /o glyphshow
25.131836 0.000000 m /w glyphshow
33.310547 0.000000 m /e glyphshow
39.462891 0.000000 m /d glyphshow
grestore
2 setlinecap
1.000 setgray
gsave
2232 2174 129.2 23.87 clipbox
129.184375 735.06397 m
2361.184375 735.06397 l
stroke
grestore
0 setlinecap
0.333 setgray
gsave
/o {
gsave
newpath
translate
0.8 setlinewidth
1 setlinejoin
0 setlinecap
0 0 m
-3.5 0 l

gsave
0.333 setgray
fill
grestore
stroke
grestore
} bind def
129.184 735.064 o
grestore
gsave
44.043750 731.267095 translate
0.000000 rotate
0.000000 0.000000 m /F glyphshow
5.751953 0.000000 m /a glyphshow
11.879883 0.000000 m /r glyphshow
15.991211 0.000000 m /m glyphshow
25.732422 0.000000 m /i glyphshow
28.510742 0.000000 m /n glyphshow
34.848633 0.000000 m /g glyphshow
41.196289 0.000000 m /hyphen glyphshow
44.804688 0.000000 m /f glyphshow
48.325195 0.000000 m /i glyphshow
51.103516 0.000000 m /s glyphshow
56.313477 0.000000 m /h glyphshow
62.651367 0.000000 m /i glyphshow
65.429688 0.000000 m /n glyphshow
71.767578 0.000000 m /g glyphshow
grestore
2 setlinecap
1.000 setgray
gsave
2232 2174 129.2 23.87 clipbox
129.184375 788.779385 m
2361.184375 788.779385 l
stroke
grestore
0 setlinecap
0.333 setgray
gsave
/o {
gsave
newpath
translate
0.8 setlinewidth
1 setlinejoin
0 setlinecap
0 0 m
-3.5 0 l

gsave
0.333 setgray
fill
grestore
stroke
grestore
} bind def
129.184 788.779 o
grestore
gsave
74.075000 784.982510 translate
0.000000 rotate
0.000000 0.000000 m /L glyphshow
5.571289 0.000000 m /o glyphshow
11.689453 0.000000 m /c glyphshow
17.187500 0.000000 m /a glyphshow
23.315430 0.000000 m /l glyphshow
26.093750 0.000000 m /hyphen glyphshow
29.702148 0.000000 m /g glyphshow
36.049805 0.000000 m /o glyphshow
42.167969 0.000000 m /v glyphshow
grestore
2 setlinecap
1.000 setgray
gsave
2232 2174 129.2 23.87 clipbox
129.184375 842.4948 m
2361.184375 842.4948 l
stroke
grestore
0 setlinecap
0.333 setgray
gsave
/o {
gsave
newpath
translate
0.8 setlinewidth
1 setlinejoin
0 setlinecap
0 0 m
-3.5 0 l

gsave
0.333 setgray
fill
grestore
stroke
grestore
} bind def
129.184 842.495 o
grestore
gsave
44.528125 838.697925 translate
0.000000 rotate
0.000000 0.000000 m /P glyphshow
6.030273 0.000000 m /r glyphshow
10.141602 0.000000 m /i glyphshow
12.919922 0.000000 m /v glyphshow
18.837891 0.000000 m /hyphen glyphshow
22.446289 0.000000 m /h glyphshow
28.784180 0.000000 m /o glyphshow
34.902344 0.000000 m /u glyphshow
41.240234 0.000000 m /s glyphshow
46.450195 0.000000 m /e glyphshow
52.602539 0.000000 m /hyphen glyphshow
56.210938 0.000000 m /s glyphshow
61.420898 0.000000 m /e glyphshow
67.573242 0.000000 m /r glyphshow
71.684570 0.000000 m /v glyphshow
grestore
2 setlinecap
1.000 setgray
gsave
2232 2174 129.2 23.87 clipbox
129.184375 896.210215 m
2361.184375 896.210215 l
stroke
grestore
0 setlinecap
0.333 setgray
gsave
/o {
gsave
newpath
translate
0.8 setlinewidth
1 setlinejoin
0 setlinecap
0 0 m
-3.5 0 l

gsave
0.333 setgray
fill
grestore
stroke
grestore
} bind def
129.184 896.21 o
grestore
gsave
7.200000 892.413340 translate
0.000000 rotate
0.000000 0.000000 m /M glyphshow
8.627930 0.000000 m /a glyphshow
14.755859 0.000000 m /r glyphshow
18.867188 0.000000 m /r glyphshow
22.978516 0.000000 m /i glyphshow
25.756836 0.000000 m /e glyphshow
31.909180 0.000000 m /d glyphshow
38.256836 0.000000 m /hyphen glyphshow
41.865234 0.000000 m /s glyphshow
47.075195 0.000000 m /p glyphshow
53.422852 0.000000 m /o glyphshow
59.541016 0.000000 m /u glyphshow
65.878906 0.000000 m /s glyphshow
71.088867 0.000000 m /e glyphshow
77.241211 0.000000 m /hyphen glyphshow
80.849609 0.000000 m /a glyphshow
86.977539 0.000000 m /b glyphshow
93.325195 0.000000 m /s glyphshow
98.535156 0.000000 m /e glyphshow
104.687500 0.000000 m /n glyphshow
111.025391 0.000000 m /t glyphshow
grestore
2 setlinecap
1.000 setgray
gsave
2232 2174 129.2 23.87 clipbox
129.184375 949.92563 m
2361.184375 949.92563 l
stroke
grestore
0 setlinecap
0.333 setgray
gsave
/o {
gsave
newpath
translate
0.8 setlinewidth
1 setlinejoin
0 setlinecap
0 0 m
-3.5 0 l

gsave
0.333 setgray
fill
grestore
stroke
grestore
} bind def
129.184 949.926 o
grestore
gsave
73.715625 946.128755 translate
0.000000 rotate
0.000000 0.000000 m /S glyphshow
6.347656 0.000000 m /t glyphshow
10.268555 0.000000 m /a glyphshow
16.396484 0.000000 m /t glyphshow
20.317383 0.000000 m /e glyphshow
26.469727 0.000000 m /hyphen glyphshow
30.078125 0.000000 m /g glyphshow
36.425781 0.000000 m /o glyphshow
42.543945 0.000000 m /v glyphshow
grestore
2 setlinecap
1.000 setgray
gsave
2232 2174 129.2 23.87 clipbox
129.184375 1003.641045 m
2361.184375 1003.641045 l
stroke
grestore
0 setlinecap
0.333 setgray
gsave
/o {
gsave
newpath
translate
0.8 setlinewidth
1 setlinejoin
0 setlinecap
0 0 m
-3.5 0 l

gsave
0.333 setgray
fill
grestore
stroke
grestore
} bind def
129.184 1003.64 o
grestore
gsave
32.918750 999.844170 translate
0.000000 rotate
0.000000 0.000000 m /T glyphshow
6.092773 0.000000 m /r glyphshow
10.204102 0.000000 m /a glyphshow
16.332031 0.000000 m /n glyphshow
22.669922 0.000000 m /s glyphshow
27.879883 0.000000 m /p glyphshow
34.227539 0.000000 m /o glyphshow
40.345703 0.000000 m /r glyphshow
44.457031 0.000000 m /t glyphshow
48.377930 0.000000 m /hyphen glyphshow
51.986328 0.000000 m /m glyphshow
61.727539 0.000000 m /o glyphshow
67.845703 0.000000 m /v glyphshow
73.763672 0.000000 m /i glyphshow
76.541992 0.000000 m /n glyphshow
82.879883 0.000000 m /g glyphshow
grestore
2 setlinecap
1.000 setgray
gsave
2232 2174 129.2 23.87 clipbox
129.184375 1057.35646 m
2361.184375 1057.35646 l
stroke
grestore
0 setlinecap
0.333 setgray
gsave
/o {
gsave
newpath
translate
0.8 setlinewidth
1 setlinejoin
0 setlinecap
0 0 m
-3.5 0 l

gsave
0.333 setgray
fill
grestore
stroke
grestore
} bind def
129.184 1057.36 o
grestore
gsave
60.856250 1053.559585 translate
0.000000 rotate
0.000000 0.000000 m /W glyphshow
9.887695 0.000000 m /i glyphshow
12.666016 0.000000 m /t glyphshow
16.586914 0.000000 m /h glyphshow
22.924805 0.000000 m /o glyphshow
29.042969 0.000000 m /u glyphshow
35.380859 0.000000 m /t glyphshow
39.301758 0.000000 m /hyphen glyphshow
42.910156 0.000000 m /p glyphshow
49.257812 0.000000 m /a glyphshow
55.385742 0.000000 m /y glyphshow
grestore
2 setlinecap
1.000 setgray
gsave
2232 2174 129.2 23.87 clipbox
129.184375 1111.071875 m
2361.184375 1111.071875 l
stroke
grestore
0 setlinecap
0.333 setgray
gsave
/o {
gsave
newpath
translate
0.8 setlinewidth
1 setlinejoin
0 setlinecap
0 0 m
-3.5 0 l

gsave
0.333 setgray
fill
grestore
stroke
grestore
} bind def
129.184 1111.07 o
grestore
gsave
28.715625 1107.275000 translate
0.000000 rotate
0.000000 0.000000 m /M glyphshow
8.627930 0.000000 m /a glyphshow
14.755859 0.000000 m /r glyphshow
18.867188 0.000000 m /r glyphshow
22.978516 0.000000 m /i glyphshow
25.756836 0.000000 m /e glyphshow
31.909180 0.000000 m /d glyphshow
38.256836 0.000000 m /hyphen glyphshow
41.865234 0.000000 m /A glyphshow
48.706055 0.000000 m /F glyphshow
54.458008 0.000000 m /hyphen glyphshow
58.066406 0.000000 m /s glyphshow
63.276367 0.000000 m /p glyphshow
69.624023 0.000000 m /o glyphshow
75.742188 0.000000 m /u glyphshow
82.080078 0.000000 m /s glyphshow
87.290039 0.000000 m /e glyphshow
grestore
2 setlinecap
1.000 setgray
gsave
2232 2174 129.2 23.87 clipbox
129.184375 1164.78729 m
2361.184375 1164.78729 l
stroke
grestore
0 setlinecap
0.333 setgray
gsave
/o {
gsave
newpath
translate
0.8 setlinewidth
1 setlinejoin
0 setlinecap
0 0 m
-3.5 0 l

gsave
0.333 setgray
fill
grestore
stroke
grestore
} bind def
129.184 1164.79 o
grestore
gsave
91.090625 1160.990415 translate
0.000000 rotate
0.000000 0.000000 m /f glyphshow
3.520508 0.000000 m /n glyphshow
9.858398 0.000000 m /l glyphshow
12.636719 0.000000 m /w glyphshow
20.815430 0.000000 m /g glyphshow
27.163086 0.000000 m /t glyphshow
grestore
2 setlinecap
1.000 setgray
gsave
2232 2174 129.2 23.87 clipbox
129.184375 1218.502705 m
2361.184375 1218.502705 l
stroke
grestore
0 setlinecap
0.333 setgray
gsave
/o {
gsave
newpath
translate
0.8 setlinewidth
1 setlinejoin
0 setlinecap
0 0 m
-3.5 0 l

gsave
0.333 setgray
fill
grestore
stroke
grestore
} bind def
129.184 1218.5 o
grestore
gsave
52.512500 1214.705830 translate
0.000000 rotate
0.000000 0.000000 m /A glyphshow
6.840820 0.000000 m /r glyphshow
10.952148 0.000000 m /m glyphshow
20.693359 0.000000 m /e glyphshow
26.845703 0.000000 m /d glyphshow
33.193359 0.000000 m /hyphen glyphshow
36.801758 0.000000 m /F glyphshow
42.553711 0.000000 m /o glyphshow
48.671875 0.000000 m /r glyphshow
52.783203 0.000000 m /c glyphshow
58.281250 0.000000 m /e glyphshow
64.433594 0.000000 m /s glyphshow
grestore
2 setlinecap
1.000 setgray
gsave
2232 2174 129.2 23.87 clipbox
129.184375 1272.21812 m
2361.184375 1272.21812 l
stroke
grestore
0 setlinecap
0.333 setgray
gsave
/o {
gsave
newpath
translate
0.8 setlinewidth
1 setlinejoin
0 setlinecap
0 0 m
-3.5 0 l

gsave
0.333 setgray
fill
grestore
stroke
grestore
} bind def
129.184 1272.22 o
grestore
gsave
52.028125 1268.421245 translate
0.000000 rotate
0.000000 0.000000 m /N glyphshow
7.480469 0.000000 m /e glyphshow
13.632812 0.000000 m /v glyphshow
19.550781 0.000000 m /e glyphshow
25.703125 0.000000 m /r glyphshow
29.814453 0.000000 m /hyphen glyphshow
33.422852 0.000000 m /w glyphshow
41.601562 0.000000 m /o glyphshow
47.719727 0.000000 m /r glyphshow
51.831055 0.000000 m /k glyphshow
57.622070 0.000000 m /e glyphshow
63.774414 0.000000 m /d glyphshow
grestore
2 setlinecap
1.000 setgray
gsave
2232 2174 129.2 23.87 clipbox
129.184375 1325.933535 m
2361.184375 1325.933535 l
stroke
grestore
0 setlinecap
0.333 setgray
gsave
/o {
gsave
newpath
translate
0.8 setlinewidth
1 setlinejoin
0 setlinecap
0 0 m
-3.5 0 l

gsave
0.333 setgray
fill
grestore
stroke
grestore
} bind def
129.184 1325.93 o
grestore
gsave
56.075000 1322.136660 translate
0.000000 rotate
0.000000 0.000000 m /T glyphshow
6.092773 0.000000 m /e glyphshow
12.245117 0.000000 m /c glyphshow
17.743164 0.000000 m /h glyphshow
24.081055 0.000000 m /hyphen glyphshow
27.689453 0.000000 m /s glyphshow
32.899414 0.000000 m /u glyphshow
39.237305 0.000000 m /p glyphshow
45.584961 0.000000 m /p glyphshow
51.932617 0.000000 m /o glyphshow
58.050781 0.000000 m /r glyphshow
62.162109 0.000000 m /t glyphshow
grestore
2 setlinecap
1.000 setgray
gsave
2232 2174 129.2 23.87 clipbox
129.184375 1379.64895 m
2361.184375 1379.64895 l
stroke
grestore
0 setlinecap
0.333 setgray
gsave
/o {
gsave
newpath
translate
0.8 setlinewidth
1 setlinejoin
0 setlinecap
0 0 m
-3.5 0 l

gsave
0.333 setgray
fill
grestore
stroke
grestore
} bind def
129.184 1379.65 o
grestore
gsave
46.543750 1375.852075 translate
0.000000 rotate
0.000000 0.000000 m /P glyphshow
6.030273 0.000000 m /r glyphshow
10.141602 0.000000 m /o glyphshow
16.259766 0.000000 m /t glyphshow
20.180664 0.000000 m /e glyphshow
26.333008 0.000000 m /c glyphshow
31.831055 0.000000 m /t glyphshow
35.751953 0.000000 m /i glyphshow
38.530273 0.000000 m /v glyphshow
44.448242 0.000000 m /e glyphshow
50.600586 0.000000 m /hyphen glyphshow
54.208984 0.000000 m /s glyphshow
59.418945 0.000000 m /e glyphshow
65.571289 0.000000 m /r glyphshow
69.682617 0.000000 m /v glyphshow
grestore
2 setlinecap
1.000 setgray
gsave
2232 2174 129.2 23.87 clipbox
129.184375 1433.364365 m
2361.184375 1433.364365 l
stroke
grestore
0 setlinecap
0.333 setgray
gsave
/o {
gsave
newpath
translate
0.8 setlinewidth
1 setlinejoin
0 setlinecap
0 0 m
-3.5 0 l

gsave
0.333 setgray
fill
grestore
stroke
grestore
} bind def
129.184 1433.36 o
grestore
gsave
64.293750 1429.567490 translate
0.000000 rotate
0.000000 0.000000 m /C glyphshow
6.982422 0.000000 m /r glyphshow
11.093750 0.000000 m /a glyphshow
17.221680 0.000000 m /f glyphshow
20.742188 0.000000 m /t glyphshow
24.663086 0.000000 m /hyphen glyphshow
28.271484 0.000000 m /r glyphshow
32.382812 0.000000 m /e glyphshow
38.535156 0.000000 m /p glyphshow
44.882812 0.000000 m /a glyphshow
51.010742 0.000000 m /i glyphshow
53.789062 0.000000 m /r glyphshow
grestore
2 setlinecap
1.000 setgray
gsave
2232 2174 129.2 23.87 clipbox
129.184375 1487.07978 m
2361.184375 1487.07978 l
stroke
grestore
0 setlinecap
0.333 setgray
gsave
/o {
gsave
newpath
translate
0.8 setlinewidth
1 setlinejoin
0 setlinecap
0 0 m
-3.5 0 l

gsave
0.333 setgray
fill
grestore
stroke
grestore
} bind def
129.184 1487.08 o
grestore
gsave
62.762500 1483.282905 translate
0.000000 rotate
0.000000 0.000000 m /F glyphshow
5.751953 0.000000 m /e glyphshow
11.904297 0.000000 m /d glyphshow
18.251953 0.000000 m /e glyphshow
24.404297 0.000000 m /r glyphshow
28.515625 0.000000 m /a glyphshow
34.643555 0.000000 m /l glyphshow
37.421875 0.000000 m /hyphen glyphshow
41.030273 0.000000 m /g glyphshow
47.377930 0.000000 m /o glyphshow
53.496094 0.000000 m /v glyphshow
grestore
2 setlinecap
1.000 setgray
gsave
2232 2174 129.2 23.87 clipbox
129.184375 1540.795195 m
2361.184375 1540.795195 l
stroke
grestore
0 setlinecap
0.333 setgray
gsave
/o {
gsave
newpath
translate
0.8 setlinewidth
1 setlinejoin
0 setlinecap
0 0 m
-3.5 0 l

gsave
0.333 setgray
fill
grestore
stroke
grestore
} bind def
129.184 1540.8 o
grestore
gsave
49.059375 1536.998320 translate
0.000000 rotate
0.000000 0.000000 m /n glyphshow
6.337891 0.000000 m /a glyphshow
12.465820 0.000000 m /t glyphshow
16.386719 0.000000 m /i glyphshow
19.165039 0.000000 m /v glyphshow
25.083008 0.000000 m /e glyphshow
31.235352 0.000000 m /hyphen glyphshow
34.843750 0.000000 m /c glyphshow
40.341797 0.000000 m /o glyphshow
46.459961 0.000000 m /u glyphshow
52.797852 0.000000 m /n glyphshow
59.135742 0.000000 m /t glyphshow
63.056641 0.000000 m /r glyphshow
67.167969 0.000000 m /y glyphshow
grestore
2 setlinecap
1.000 setgray
gsave
2232 2174 129.2 23.87 clipbox
129.184375 1594.51061 m
2361.184375 1594.51061 l
stroke
grestore
0 setlinecap
0.333 setgray
gsave
/o {
gsave
newpath
translate
0.8 setlinewidth
1 setlinejoin
0 setlinecap
0 0 m
-3.5 0 l

gsave
0.333 setgray
fill
grestore
stroke
grestore
} bind def
129.184 1594.51 o
grestore
gsave
95.559375 1590.713735 translate
0.000000 rotate
0.000000 0.000000 m /S glyphshow
6.347656 0.000000 m /a glyphshow
12.475586 0.000000 m /l glyphshow
15.253906 0.000000 m /e glyphshow
21.406250 0.000000 m /s glyphshow
grestore
2 setlinecap
1.000 setgray
gsave
2232 2174 129.2 23.87 clipbox
129.184375 1648.226025 m
2361.184375 1648.226025 l
stroke
grestore
0 setlinecap
0.333 setgray
gsave
/o {
gsave
newpath
translate
0.8 setlinewidth
1 setlinejoin
0 setlinecap
0 0 m
-3.5 0 l

gsave
0.333 setgray
fill
grestore
stroke
grestore
} bind def
129.184 1648.23 o
grestore
gsave
65.653125 1644.429150 translate
0.000000 rotate
0.000000 0.000000 m /c glyphshow
5.498047 0.000000 m /a glyphshow
11.625977 0.000000 m /p glyphshow
17.973633 0.000000 m /i glyphshow
20.751953 0.000000 m /t glyphshow
24.672852 0.000000 m /a glyphshow
30.800781 0.000000 m /l glyphshow
33.579102 0.000000 m /hyphen glyphshow
37.187500 0.000000 m /l glyphshow
39.965820 0.000000 m /o glyphshow
46.083984 0.000000 m /s glyphshow
51.293945 0.000000 m /s glyphshow
grestore
2 setlinecap
1.000 setgray
gsave
2232 2174 129.2 23.87 clipbox
129.184375 1701.94144 m
2361.184375 1701.94144 l
stroke
grestore
0 setlinecap
0.333 setgray
gsave
/o {
gsave
newpath
translate
0.8 setlinewidth
1 setlinejoin
0 setlinecap
0 0 m
-3.5 0 l

gsave
0.333 setgray
fill
grestore
stroke
grestore
} bind def
129.184 1701.94 o
grestore
gsave
59.293750 1698.144565 translate
0.000000 rotate
0.000000 0.000000 m /S glyphshow
6.347656 0.000000 m /e glyphshow
12.500000 0.000000 m /l glyphshow
15.278320 0.000000 m /f glyphshow
18.798828 0.000000 m /hyphen glyphshow
22.407227 0.000000 m /e glyphshow
28.559570 0.000000 m /m glyphshow
38.300781 0.000000 m /p glyphshow
44.648438 0.000000 m /hyphen glyphshow
48.256836 0.000000 m /i glyphshow
51.035156 0.000000 m /n glyphshow
57.373047 0.000000 m /c glyphshow
grestore
2 setlinecap
1.000 setgray
gsave
2232 2174 129.2 23.87 clipbox
129.184375 1755.656855 m
2361.184375 1755.656855 l
stroke
grestore
0 setlinecap
0.333 setgray
gsave
/o {
gsave
newpath
translate
0.8 setlinewidth
1 setlinejoin
0 setlinecap
0 0 m
-3.5 0 l

gsave
0.333 setgray
fill
grestore
stroke
grestore
} bind def
129.184 1755.66 o
grestore
gsave
87.137500 1751.859980 translate
0.000000 rotate
0.000000 0.000000 m /P glyphshow
6.030273 0.000000 m /r glyphshow
10.141602 0.000000 m /i glyphshow
12.919922 0.000000 m /v glyphshow
18.837891 0.000000 m /a glyphshow
24.965820 0.000000 m /t glyphshow
28.886719 0.000000 m /e glyphshow
grestore
2 setlinecap
1.000 setgray
gsave
2232 2174 129.2 23.87 clipbox
129.184375 1809.37227 m
2361.184375 1809.37227 l
stroke
grestore
0 setlinecap
0.333 setgray
gsave
/o {
gsave
newpath
translate
0.8 setlinewidth
1 setlinejoin
0 setlinecap
0 0 m
-3.5 0 l

gsave
0.333 setgray
fill
grestore
stroke
grestore
} bind def
129.184 1809.37 o
grestore
gsave
43.918750 1805.575395 translate
0.000000 rotate
0.000000 0.000000 m /h glyphshow
6.337891 0.000000 m /o glyphshow
12.456055 0.000000 m /u glyphshow
18.793945 0.000000 m /r glyphshow
22.905273 0.000000 m /s glyphshow
28.115234 0.000000 m /hyphen glyphshow
31.723633 0.000000 m /p glyphshow
38.071289 0.000000 m /e glyphshow
44.223633 0.000000 m /r glyphshow
48.334961 0.000000 m /hyphen glyphshow
51.943359 0.000000 m /w glyphshow
60.122070 0.000000 m /e glyphshow
66.274414 0.000000 m /e glyphshow
72.426758 0.000000 m /k glyphshow
grestore
2 setlinecap
1.000 setgray
gsave
2232 2174 129.2 23.87 clipbox
129.184375 1863.087685 m
2361.184375 1863.087685 l
stroke
grestore
0 setlinecap
0.333 setgray
gsave
/o {
gsave
newpath
translate
0.8 setlinewidth
1 setlinejoin
0 setlinecap
0 0 m
-3.5 0 l

gsave
0.333 setgray
fill
grestore
stroke
grestore
} bind def
129.184 1863.09 o
grestore
gsave
38.043750 1859.290810 translate
0.000000 rotate
0.000000 0.000000 m /E glyphshow
6.318359 0.000000 m /x glyphshow
12.236328 0.000000 m /e glyphshow
18.388672 0.000000 m /c glyphshow
23.886719 0.000000 m /hyphen glyphshow
27.495117 0.000000 m /m glyphshow
37.236328 0.000000 m /a glyphshow
43.364258 0.000000 m /n glyphshow
49.702148 0.000000 m /a glyphshow
55.830078 0.000000 m /g glyphshow
62.177734 0.000000 m /e glyphshow
68.330078 0.000000 m /r glyphshow
72.441406 0.000000 m /i glyphshow
75.219727 0.000000 m /a glyphshow
81.347656 0.000000 m /l glyphshow
grestore
2 setlinecap
1.000 setgray
gsave
2232 2174 129.2 23.87 clipbox
129.184375 1916.8031 m
2361.184375 1916.8031 l
stroke
grestore
0 setlinecap
0.333 setgray
gsave
/o {
gsave
newpath
translate
0.8 setlinewidth
1 setlinejoin
0 setlinecap
0 0 m
-3.5 0 l

gsave
0.333 setgray
fill
grestore
stroke
grestore
} bind def
129.184 1916.8 o
grestore
gsave
63.403125 1913.006225 translate
0.000000 rotate
0.000000 0.000000 m /c glyphshow
5.498047 0.000000 m /a glyphshow
11.625977 0.000000 m /p glyphshow
17.973633 0.000000 m /i glyphshow
20.751953 0.000000 m /t glyphshow
24.672852 0.000000 m /a glyphshow
30.800781 0.000000 m /l glyphshow
33.579102 0.000000 m /hyphen glyphshow
37.187500 0.000000 m /g glyphshow
43.535156 0.000000 m /a glyphshow
49.663086 0.000000 m /i glyphshow
52.441406 0.000000 m /n glyphshow
grestore
2 setlinecap
1.000 setgray
gsave
2232 2174 129.2 23.87 clipbox
129.184375 1970.518515 m
2361.184375 1970.518515 l
stroke
grestore
0 setlinecap
0.333 setgray
gsave
/o {
gsave
newpath
translate
0.8 setlinewidth
1 setlinejoin
0 setlinecap
0 0 m
-3.5 0 l

gsave
0.333 setgray
fill
grestore
stroke
grestore
} bind def
129.184 1970.52 o
grestore
gsave
54.043750 1966.721640 translate
0.000000 rotate
0.000000 0.000000 m /P glyphshow
6.030273 0.000000 m /r glyphshow
10.141602 0.000000 m /o glyphshow
16.259766 0.000000 m /f glyphshow
19.780273 0.000000 m /hyphen glyphshow
23.388672 0.000000 m /s glyphshow
28.598633 0.000000 m /p glyphshow
34.946289 0.000000 m /e glyphshow
41.098633 0.000000 m /c glyphshow
46.596680 0.000000 m /i glyphshow
49.375000 0.000000 m /a glyphshow
55.502930 0.000000 m /l glyphshow
58.281250 0.000000 m /t glyphshow
62.202148 0.000000 m /y glyphshow
grestore
2 setlinecap
1.000 setgray
gsave
2232 2174 129.2 23.87 clipbox
129.184375 2024.23393 m
2361.184375 2024.23393 l
stroke
grestore
0 setlinecap
0.333 setgray
gsave
/o {
gsave
newpath
translate
0.8 setlinewidth
1 setlinejoin
0 setlinecap
0 0 m
-3.5 0 l

gsave
0.333 setgray
fill
grestore
stroke
grestore
} bind def
129.184 2024.23 o
grestore
gsave
37.590625 2020.437055 translate
0.000000 rotate
0.000000 0.000000 m /e glyphshow
6.152344 0.000000 m /d glyphshow
12.500000 0.000000 m /u glyphshow
18.837891 0.000000 m /c glyphshow
24.335938 0.000000 m /a glyphshow
30.463867 0.000000 m /t glyphshow
34.384766 0.000000 m /i glyphshow
37.163086 0.000000 m /o glyphshow
43.281250 0.000000 m /n glyphshow
49.619141 0.000000 m /a glyphshow
55.747070 0.000000 m /l glyphshow
58.525391 0.000000 m /hyphen glyphshow
62.133789 0.000000 m /n glyphshow
68.471680 0.000000 m /u glyphshow
74.809570 0.000000 m /m glyphshow
grestore
2 setlinecap
1.000 setgray
gsave
2232 2174 129.2 23.87 clipbox
129.184375 2077.949345 m
2361.184375 2077.949345 l
stroke
grestore
0 setlinecap
0.333 setgray
gsave
/o {
gsave
newpath
translate
0.8 setlinewidth
1 setlinejoin
0 setlinecap
0 0 m
-3.5 0 l

gsave
0.333 setgray
fill
grestore
stroke
grestore
} bind def
129.184 2077.95 o
grestore
gsave
27.106250 2074.152470 translate
0.000000 rotate
0.000000 0.000000 m /M glyphshow
8.627930 0.000000 m /a glyphshow
14.755859 0.000000 m /r glyphshow
18.867188 0.000000 m /r glyphshow
22.978516 0.000000 m /i glyphshow
25.756836 0.000000 m /e glyphshow
31.909180 0.000000 m /d glyphshow
38.256836 0.000000 m /hyphen glyphshow
41.865234 0.000000 m /c glyphshow
47.363281 0.000000 m /i glyphshow
50.141602 0.000000 m /v glyphshow
56.059570 0.000000 m /hyphen glyphshow
59.667969 0.000000 m /s glyphshow
64.877930 0.000000 m /p glyphshow
71.225586 0.000000 m /o glyphshow
77.343750 0.000000 m /u glyphshow
83.681641 0.000000 m /s glyphshow
88.891602 0.000000 m /e glyphshow
grestore
gsave
2232 2174 129.2 23.87 clipbox
1245.184375 122.708239 m
529.828752 122.708239 l
529.828752 165.680571 l
1245.184375 165.680571 l
cl
0.239 0.910 0.969 setrgbcolor
fill
grestore
gsave
2232 2174 129.2 23.87 clipbox
1245.184375 176.423654 m
991.15398 176.423654 l
991.15398 219.395986 l
1245.184375 219.395986 l
cl
0.239 0.910 0.969 setrgbcolor
fill
grestore
gsave
2232 2174 129.2 23.87 clipbox
1245.184375 230.139069 m
1107.992886 230.139069 l
1107.992886 273.111401 l
1245.184375 273.111401 l
cl
0.239 0.910 0.969 setrgbcolor
fill
grestore
gsave
2232 2174 129.2 23.87 clipbox
1245.184375 283.854484 m
1113.269481 283.854484 l
1113.269481 326.826816 l
1245.184375 326.826816 l
cl
0.239 0.910 0.969 setrgbcolor
fill
grestore
gsave
2232 2174 129.2 23.87 clipbox
1245.184375 337.569899 m
1117.792278 337.569899 l
1117.792278 380.542231 l
1245.184375 380.542231 l
cl
0.239 0.910 0.969 setrgbcolor
fill
grestore
gsave
2232 2174 129.2 23.87 clipbox
1245.184375 391.285314 m
1122.315074 391.285314 l
1122.315074 434.257646 l
1245.184375 434.257646 l
cl
0.239 0.910 0.969 setrgbcolor
fill
grestore
gsave
2232 2174 129.2 23.87 clipbox
1245.184375 445.000729 m
1123.068873 445.000729 l
1123.068873 487.973061 l
1245.184375 487.973061 l
cl
0.239 0.910 0.969 setrgbcolor
fill
grestore
gsave
2232 2174 129.2 23.87 clipbox
1245.184375 498.716144 m
1141.160059 498.716144 l
1141.160059 541.688476 l
1245.184375 541.688476 l
cl
0.239 0.910 0.969 setrgbcolor
fill
grestore
gsave
2232 2174 129.2 23.87 clipbox
1245.184375 552.431559 m
1172.065834 552.431559 l
1172.065834 595.403891 l
1245.184375 595.403891 l
cl
0.239 0.910 0.969 setrgbcolor
fill
grestore
gsave
2232 2174 129.2 23.87 clipbox
1245.184375 606.146974 m
1193.926016 606.146974 l
1193.926016 649.119306 l
1245.184375 649.119306 l
cl
0.239 0.910 0.969 setrgbcolor
fill
grestore
gsave
2232 2174 129.2 23.87 clipbox
1245.184375 659.862389 m
1201.46401 659.862389 l
1201.46401 702.834721 l
1245.184375 702.834721 l
cl
0.239 0.910 0.969 setrgbcolor
fill
grestore
gsave
2232 2174 129.2 23.87 clipbox
1245.184375 713.577804 m
1205.233007 713.577804 l
1205.233007 756.550136 l
1245.184375 756.550136 l
cl
0.239 0.910 0.969 setrgbcolor
fill
grestore
gsave
2232 2174 129.2 23.87 clipbox
1245.184375 767.293219 m
1209.755804 767.293219 l
1209.755804 810.265551 l
1245.184375 810.265551 l
cl
0.239 0.910 0.969 setrgbcolor
fill
grestore
gsave
2232 2174 129.2 23.87 clipbox
1245.184375 821.008634 m
1230.108387 821.008634 l
1230.108387 863.980966 l
1245.184375 863.980966 l
cl
0.239 0.910 0.969 setrgbcolor
fill
grestore
gsave
2232 2174 129.2 23.87 clipbox
1245.184375 874.724049 m
1232.369785 874.724049 l
1232.369785 917.696381 l
1245.184375 917.696381 l
cl
0.239 0.910 0.969 setrgbcolor
fill
grestore
gsave
2232 2174 129.2 23.87 clipbox
1245.184375 928.439464 m
1236.892582 928.439464 l
1236.892582 971.411796 l
1245.184375 971.411796 l
cl
0.239 0.910 0.969 setrgbcolor
fill
grestore
gsave
2232 2174 129.2 23.87 clipbox
1245.184375 982.154879 m
1239.907779 982.154879 l
1239.907779 1025.127211 l
1245.184375 1025.127211 l
cl
0.239 0.910 0.969 setrgbcolor
fill
grestore
gsave
2232 2174 129.2 23.87 clipbox
1245.184375 1035.870294 m
1242.922977 1035.870294 l
1242.922977 1078.842626 l
1245.184375 1078.842626 l
cl
0.239 0.910 0.969 setrgbcolor
fill
grestore
gsave
2232 2174 129.2 23.87 clipbox
1245.184375 1089.585709 m
1245.184375 1089.585709 l
1245.184375 1132.558041 l
1245.184375 1132.558041 l
cl
0.239 0.910 0.969 setrgbcolor
fill
grestore
gsave
2232 2174 129.2 23.87 clipbox
1245.184375 1143.301124 m
1246.691974 1143.301124 l
1246.691974 1186.273456 l
1245.184375 1186.273456 l
cl
1.000 0.302 0.302 setrgbcolor
fill
grestore
gsave
2232 2174 129.2 23.87 clipbox
1245.184375 1197.016539 m
1248.199573 1197.016539 l
1248.199573 1239.988871 l
1245.184375 1239.988871 l
cl
1.000 0.302 0.302 setrgbcolor
fill
grestore
gsave
2232 2174 129.2 23.87 clipbox
1245.184375 1250.731954 m
1273.074953 1250.731954 l
1273.074953 1293.704286 l
1245.184375 1293.704286 l
cl
1.000 0.302 0.302 setrgbcolor
fill
grestore
gsave
2232 2174 129.2 23.87 clipbox
1245.184375 1304.447369 m
1280.612946 1304.447369 l
1280.612946 1347.419701 l
1245.184375 1347.419701 l
cl
1.000 0.302 0.302 setrgbcolor
fill
grestore
gsave
2232 2174 129.2 23.87 clipbox
1245.184375 1358.162784 m
1283.628144 1358.162784 l
1283.628144 1401.135116 l
1245.184375 1401.135116 l
cl
1.000 0.302 0.302 setrgbcolor
fill
grestore
gsave
2232 2174 129.2 23.87 clipbox
1245.184375 1411.878199 m
1296.442734 1411.878199 l
1296.442734 1454.850531 l
1245.184375 1454.850531 l
cl
1.000 0.302 0.302 setrgbcolor
fill
grestore
gsave
2232 2174 129.2 23.87 clipbox
1245.184375 1465.593614 m
1300.96553 1465.593614 l
1300.96553 1508.565946 l
1245.184375 1508.565946 l
cl
1.000 0.302 0.302 setrgbcolor
fill
grestore
gsave
2232 2174 129.2 23.87 clipbox
1245.184375 1519.309029 m
1303.226928 1519.309029 l
1303.226928 1562.281361 l
1245.184375 1562.281361 l
cl
1.000 0.302 0.302 setrgbcolor
fill
grestore
gsave
2232 2174 129.2 23.87 clipbox
1245.184375 1573.024444 m
1316.041518 1573.024444 l
1316.041518 1615.996776 l
1245.184375 1615.996776 l
cl
1.000 0.302 0.302 setrgbcolor
fill
grestore
gsave
2232 2174 129.2 23.87 clipbox
1245.184375 1626.739859 m
1393.682855 1626.739859 l
1393.682855 1669.712191 l
1245.184375 1669.712191 l
cl
1.000 0.302 0.302 setrgbcolor
fill
grestore
gsave
2232 2174 129.2 23.87 clipbox
1245.184375 1680.455274 m
1394.436655 1680.455274 l
1394.436655 1723.427606 l
1245.184375 1723.427606 l
cl
1.000 0.302 0.302 setrgbcolor
fill
grestore
gsave
2232 2174 129.2 23.87 clipbox
1245.184375 1734.170689 m
1464.539998 1734.170689 l
1464.539998 1777.143021 l
1245.184375 1777.143021 l
cl
1.000 0.302 0.302 setrgbcolor
fill
grestore
gsave
2232 2174 129.2 23.87 clipbox
1245.184375 1787.886104 m
1652.236047 1787.886104 l
1652.236047 1830.858436 l
1245.184375 1830.858436 l
cl
1.000 0.302 0.302 setrgbcolor
fill
grestore
gsave
2232 2174 129.2 23.87 clipbox
1245.184375 1841.601519 m
1652.989846 1841.601519 l
1652.989846 1884.573851 l
1245.184375 1884.573851 l
cl
1.000 0.302 0.302 setrgbcolor
fill
grestore
gsave
2232 2174 129.2 23.87 clipbox
1245.184375 1895.316934 m
1671.081032 1895.316934 l
1671.081032 1938.289266 l
1245.184375 1938.289266 l
cl
1.000 0.302 0.302 setrgbcolor
fill
grestore
gsave
2232 2174 129.2 23.87 clipbox
1245.184375 1949.032349 m
1679.372825 1949.032349 l
1679.372825 1992.004681 l
1245.184375 1992.004681 l
cl
1.000 0.302 0.302 setrgbcolor
fill
grestore
gsave
2232 2174 129.2 23.87 clipbox
1245.184375 2002.747764 m
2251.506563 2002.747764 l
2251.506563 2045.720096 l
1245.184375 2045.720096 l
cl
1.000 0.302 0.302 setrgbcolor
fill
grestore
gsave
2232 2174 129.2 23.87 clipbox
1245.184375 2056.463179 m
2308.041518 2056.463179 l
2308.041518 2099.435511 l
1245.184375 2099.435511 l
cl
1.000 0.302 0.302 setrgbcolor
fill
grestore
1.000 setlinewidth
0 setlinejoin
2 setlinecap
[] 0 setdash
1.000 setgray
gsave
129.184375 23.871875 m
129.184375 2198.271875 l
stroke
grestore
gsave
2361.184375 23.871875 m
2361.184375 2198.271875 l
stroke
grestore
gsave
129.184375 23.871875 m
2361.184375 23.871875 l
stroke
grestore
gsave
129.184375 2198.271875 m
2361.184375 2198.271875 l
stroke
grestore
0.000 setgray
/DejaVuSans findfont
14.400 scalefont
setfont
gsave
1146.239063 2204.271875 translate
0.000000 rotate
0.000000 0.000000 m /F glyphshow
8.261795 0.000000 m /a glyphshow
17.080261 0.000000 m /i glyphshow
21.078430 0.000000 m /r glyphshow
26.994888 0.000000 m /M glyphshow
39.411011 0.000000 m /L glyphshow
47.428436 0.000000 m /space glyphshow
52.002792 0.000000 m /f glyphshow
57.069016 0.000000 m /e glyphshow
65.922623 0.000000 m /a glyphshow
74.741089 0.000000 m /t glyphshow
80.383499 0.000000 m /u glyphshow
89.504120 0.000000 m /r glyphshow
95.420578 0.000000 m /e glyphshow
104.274185 0.000000 m /space glyphshow
108.848541 0.000000 m /d glyphshow
117.983215 0.000000 m /e glyphshow
126.836823 0.000000 m /p glyphshow
135.971497 0.000000 m /e glyphshow
144.825104 0.000000 m /n glyphshow
153.945724 0.000000 m /d glyphshow
163.080399 0.000000 m /e glyphshow
171.934006 0.000000 m /n glyphshow
181.054626 0.000000 m /c glyphshow
188.966660 0.000000 m /e glyphshow
grestore

end
showpage
